[
  {
    "model": "students.course",
    "pk": "03601203",
    "fields": {
      "course_id": "03601203",
      "year" : 2555,
      "name_en": "Electronics for Computer Engineers",
      "name_th": "อิเล็กทรอนิคส์สำหรับวิศวกรคอมพิวเตอร์",
      "unit_lecture": 3,
      "unit_lab": 0
    }
  },
  {
    "model": "students.course",
    "pk": "03601303",
    "fields": {
      "course_id": "03601303",
      "year" : 2555,
      "name_en": "Electronics Laboratory for Computer Engineers",
      "name_th": "ปฏิบัติการอิเล็กทรอนิคส์สำหรับวิศวกรคอมพิวเตอร์",
      "unit_lecture": 0,
      "unit_lab": 1,
      "prerequisite":["03601203"]
    }
  },
  {
    "model": "students.course",
    "pk": "03603112",
    "fields": {
      "course_id": "03603112",
      "year" : 2555,
      "name_en": "Programming Fundamentals II",
      "name_th": "หลักการโปรแกรมเบื้องต้น II",
      "unit_lecture": 2,
      "unit_lab": 1,
      "prerequisite":["03603111"]
    }
  },
  {
    "model": "students.course",
    "pk": "03603211",
    "fields": {
      "course_id": "03603211",
      "year" : 2555,
      "name_en": "Discrete Mathematics",
      "name_th": "คณิตศาสตร์เต็มหน่วย",
      "unit_lecture": 3,
      "unit_lab": 0
    }
  },
  {
    "model": "students.course",
    "pk": "03603212",
    "fields": {
      "course_id": "03603212",
      "year" : 2555,
      "name_en": "Abstract Data Types and Problem Solving",
      "name_th": "แบบชนิดข้อมูลนามธรรมและการแก้ปัญหา",
      "unit_lecture": 3,
      "unit_lab": 0,
      "prerequisite":["03603111"]
    }
  },
  {
    "model": "students.course",
    "pk": "03603213",
    "fields": {
      "course_id": "03603213",
      "year" : 2555,
      "name_en": "Algorithm Design and Analysis",
      "name_th": "การออกแบบและวิเคราะห์ขั้นตอนวิธี",
      "unit_lecture": 3,
      "unit_lab": 0,
      "prerequisite":["03603211","03603212"]
    }
  },
  {
    "model": "students.course",
    "pk": "03603214",
    "fields": {
      "course_id": "03603214",
      "year" : 2555,
      "name_en": "Programming Skills Development Laboratory",
      "name_th": "ปฏิบัติการพัฒนาทักษะการโปรแกรม",
      "unit_lecture": 0,
      "unit_lab": 1
    }
  },
  {
    "model": "students.course",
    "pk": "03603221",
    "fields": {
      "course_id": "03603221",
      "year" : 2555,
      "name_en": "Digital Systems Design",
      "name_th": "การออกแบบระบบดิจิทัล",
      "unit_lecture": 3,
      "unit_lab": 0
    }
  },
  {
    "model": "students.course",
    "pk": "03603222",
    "fields": {
      "course_id": "03603222",
      "year" : 2555,
      "name_en": "Logic Circuit Laboratory",
      "name_th": "ปฏิบัติการวงจรตรรก",
      "unit_lecture": 0,
      "unit_lab": 1
    }
  },
  {
    "model": "students.course",
    "pk": "03603223",
    "fields": {
      "course_id": "03603223",
      "year" : 2555,
      "name_en": "Computer Architecture and Organization",
      "name_th": "สถาปัตยกรรมและการจัดระบบคอมพิวเตอร์",
      "unit_lecture": 3,
      "unit_lab": 0,
      "prerequisite":["03603221"]
    }
  },
  {
    "model": "students.course",
    "pk": "03603225",
    "fields": {
      "course_id": "03603225",
      "year" : 2555,
      "name_en": "Web Technology Laboratory",
      "name_th": "ปฏิบัติการเทคโนโลยีเว็บ",
      "unit_lecture": 0,
      "unit_lab": 1
    }
  },
  {
    "model": "students.course",
    "pk": "03603251",
    "fields": {
      "course_id": "03603251",
      "year" : 2555,
      "name_en": "Database Systems",
      "name_th": "ระบบฐานข้อมูล",
      "unit_lecture": 3,
      "unit_lab": 0
    }
  },
  {
    "model": "students.course",
    "pk": "03603252",
    "fields": {
      "course_id": "03603252",
      "year" : 2555,
      "name_en": "Database Systems Laboratory",
      "name_th": "ปฏิบัติการระบบฐานข้อมูล",
      "unit_lecture": 0,
      "unit_lab": 1
    }
  },
  {
    "model": "students.course",
    "pk": "03603312",
    "fields": {
      "course_id": "03603312",
      "year" : 2555,
      "name_en": "Probability and Random Processes for Computer Engineers",
      "name_th": "ความน่าจะเป็นและกระบวนการสุ่มสำหรับวิศวกรคอมพิวเตอร์",
      "unit_lecture": 3,
      "unit_lab": 0,
      "prerequisite":["01417168"]
    }
  },
  {
    "model": "students.course",
    "pk": "03603321",
    "fields": {
      "course_id": "03603321",
      "year" : 2555,
      "name_en": "Microcontroller and Microprocessor System Design",
      "name_th": "การออกแบบระบบไมโครคอนโทรเลอร์และระบบไมโครโปรเซสเซอร์",
      "unit_lecture": 3,
      "unit_lab": 0,
      "prerequisite":["03603223"]
    }
  },
  {
    "model": "students.course",
    "pk": "03603322",
    "fields": {
      "course_id": "03603322",
      "year" : 2555,
      "name_en": "Computer System Laboratory",
      "name_th": "ปฏิบัติการระบบคอมพิวเตอร์",
      "unit_lecture": 0,
      "unit_lab": 1,
      "prerequisite":["03603223","03603222"]
    }
  },
  {
    "model": "students.course",
    "pk": "03603325",
    "fields": {
      "course_id": "03603325",
      "year" : 2555,
      "name_en": "Data Communication",
      "name_th": "การสื่อสารข้อมูล",
      "unit_lecture": 3,
      "unit_lab": 0,
      "prerequisite":[]
    }
  },
  {
    "model": "students.course",
    "pk": "03603332",
    "fields": {
      "course_id": "03603332",
      "year" : 2555,
      "name_en": "Operating Systems",
      "name_th": "ระบบปฏิบัติการ",
      "unit_lecture": 3,
      "unit_lab": 0,
      "prerequisite":["03603223"]
    }
  },
  {
    "model": "students.course",
    "pk": "03603341",
    "fields": {
      "course_id": "03603341",
      "year" : 2555,
      "name_en": "Software Engineering",
      "name_th": "วิศวกรรมซอฟต์แวร์",
      "unit_lecture": 3,
      "unit_lab": 1,
      "prerequisite":["03603112","03603212"]
    }
  },
  {
    "model": "students.course",
    "pk": "03603352",
    "fields": {
      "course_id": "03603352",
      "year" : 2555,
      "name_en": "Laws and Ethics in Information Technology",
      "name_th": "กฎหมายและจริยธรรมทางเทคโนโลยีสารสนเทศ",
      "unit_lecture": 3,
      "unit_lab": 0,
      "prerequisite":[]
    }
  },
  {
    "model": "students.course",
    "pk": "03603371",
    "fields": {
      "course_id": "03603371",
      "year" : 2555,
      "name_en": "Digital Signal Processing for Computer Engineers",
      "name_th": "การประมวลผลสัญญาณดิจิทัลสำหรับวิศวกรคอมพิวเตอร์",
      "unit_lecture": 3,
      "unit_lab": 0,
      "prerequisite":[]
    }
  },
  {
    "model": "students.course",
    "pk": "03603421",
    "fields": {
      "course_id": "03603421",
      "year" : 2555,
      "name_en": "Computer Networks",
      "name_th": "เครือข่ายคอมพิวเตอร์",
      "unit_lecture": 3,
      "unit_lab": 0,
      "prerequisite":["03603325"]
    }
  },
  {
    "model": "students.course",
    "pk": "03603495",
    "fields": {
      "course_id": "03603495",
      "year" : 2555,
      "name_en": "Computer Engineering and Informatics Project Preparation",
      "name_th": "การเตรียมโครงงานวิศวกรรมคอมพิวเตอร์และสารสนเทศศาสตร์",
      "unit_lecture": 0,
      "unit_lab": 1,
      "prerequisite":[]
    }
  },
  {
    "model": "students.course",
    "pk": "03603497",
    "fields": {
      "course_id": "03603497",
      "year" : 2555,
      "name_en": "Seminar",
      "name_th": "สัมมนา",
      "unit_lecture": 0,
      "unit_lab": 1,
      "prerequisite":[]
    }
  },
  {
    "model": "students.course",
    "pk": "03603499",
    "fields": {
      "course_id": "03603499",
      "year" : 2555,
      "name_en": "Computer Engineering and Informatics Project",
      "name_th": "โครงงานวิศวกรรมคอมพิวเตอร์และสารสนเทศศาสตร์",
      "unit_lecture": 0,
      "unit_lab": 2,
      "prerequisite":["03603495"]
    }
  },
  {
    "model": "students.course",
    "pk": "03600490",
    "fields": {
      "course_id": "03600490",
      "year" : 2555,
      "name_en": "Cooperative Education",
      "name_th": "สหกิจศึกษา",
      "unit_lecture": 6,
      "unit_lab": 0,
      "prerequisite":[]
    }
  },
  {
    "model": "students.course",
    "pk": "03603323",
    "fields": {
      "course_id": "03603323",
      "year" : 2555,
      "name_en": "Embedded Systems",
      "name_th": "ระบบฝังตัว",
      "unit_lecture": 3,
      "unit_lab": 0,
      "prerequisite":[]
    }
  },
  {
    "model": "students.course",
    "pk": "03603372",
    "fields": {
      "course_id": "03603372",
      "year" : 2555,
      "name_en": "Digital Image Processing",
      "name_th": "การประมวลผลภาพดิจิทัล",
      "unit_lecture": 3,
      "unit_lab": 0,
      "prerequisite":[]
    }
  },
  {
    "model": "students.course",
    "pk": "03603423",
    "fields": {
      "course_id": "03603423",
      "year" : 2555,
      "name_en": "Network Programming",
      "name_th": "การโปรแกรมเครือข่าย",
      "unit_lecture": 3,
      "unit_lab": 0,
      "prerequisite":["03603325"]
    }
  },
  {
    "model": "students.course",
    "pk": "03603426",
    "fields": {
      "course_id": "03603426",
      "year" : 2555,
      "name_en": "Computer Security",
      "name_th": "ความปลอดภัยในระบบคอมพิวเตอร์",
      "unit_lecture": 3,
      "unit_lab": 0,
      "prerequisite":[]
    }
  },
  {
    "model": "students.course",
    "pk": "03603427",
    "fields": {
      "course_id": "03603427",
      "year" : 2555,
      "name_en": "Mobile Computing",
      "name_th": "ระบบคอมพิวเตอร์เคลื่อนที่",
      "unit_lecture": 3,
      "unit_lab": 0,
      "prerequisite":[]
    }
  },
  {
    "model": "students.course",
    "pk": "03603432",
    "fields": {
      "course_id": "03603432",
      "year" : 2555,
      "name_en": "Programming Language Concepts",
      "name_th": "มโนทัศน์ภาษาโปรแกรม",
      "unit_lecture": 3,
      "unit_lab": 0,
      "prerequisite":["03603112"]
    }
  },
  {
    "model": "students.course",
    "pk": "03603451",
    "fields": {
      "course_id": "03603451",
      "year" : 2555,
      "name_en": "Information Technology Management",
      "name_th": "การจัดการเทคโนโลยีสารสนเทศ",
      "unit_lecture": 3,
      "unit_lab": 0,
      "prerequisite":[]
    }
  },
  {
    "model": "students.course",
    "pk": "03603461",
    "fields": {
      "course_id": "03603461",
      "year" : 2555,
      "name_en": "Artificial Intelligence",
      "name_th": "ปัญญาประดิษฐ์",
      "unit_lecture": 3,
      "unit_lab": 0,
      "prerequisite":["03603213"]
    }
  },
  {
    "model": "students.course",
    "pk": "03603471",
    "fields": {
      "course_id": "03603471",
      "year" : 2555,
      "name_en": "Microcomputer Interfacing",
      "name_th": "การเชื่อมต่อกับไมโครคอมพิวเตอร์",
      "unit_lecture": 3,
      "unit_lab": 0,
      "prerequisite":["03603321"]
    }
  },
  {
    "model": "students.course",
    "pk": "03603481",
    "fields": {
      "course_id": "03603481",
      "year" : 2555,
      "name_en": "Computer Graphics",
      "name_th": "คอมพิวเตอร์กราฟิกส์",
      "unit_lecture": 3,
      "unit_lab": 0,
      "prerequisite":["01417168","03603213"]
    }
  },
  {
    "model": "students.course",
    "pk": "03603484",
    "fields": {
      "course_id": "03603484",
      "year" : 2555,
      "name_en": "Computer Game Development",
      "name_th": "การพัฒนาเกมคอมพิวเตอร์",
      "unit_lecture": 3,
      "unit_lab": 0,
      "prerequisite":["03603112","03603212"]
    }
  },
  {
    "model": "students.course",
    "pk": "03603496",
    "fields": {
      "course_id": "03603496",
      "year" : 2555,
      "name_en": "Selected Topics in Computer Engineering and Informatics",
      "name_th": "เรื่องเฉพาะทางวิศวกรรมคอมพิวเตอร์และสารสนเทศศาสตร์",
      "unit_lecture": 3,
      "unit_lab": 0,
      "prerequisite":[]
    }
  },
  {
    "model": "students.course",
    "pk": "03603498",
    "fields": {
      "course_id": "03603498",
      "year" : 2555,
      "name_en": "Special Problems",
      "name_th": "ปัญหาพิเศษ",
      "unit_lecture": 3,
      "unit_lab": 0,
      "prerequisite":[]
    }
  }
]
