[
  {
    "model": "students.course",
    "pk": "01417167",
    "fields": {
      "course_id": "01417167",
      "name_en": "Engineering Mathematics I",
      "name_th": "คณิตศาสตร์วิศวกรรม I",
      "unit_lecture": 3,
      "unit_lab": 0
    }
  },
  {
    "model": "students.course",
    "pk": "01417168",
    "fields": {
      "course_id": "01417168",
      "name_en": "Engineering Mathematics II",
      "name_th": "คณิตศาสตร์วิศวกรรม II",
      "unit_lecture": 3,
      "unit_lab": 0,
      "prerequisite": ["01417167"]
    }
  },
  {
    "model": "students.course",
    "pk": "01417267",
    "fields": {
      "course_id": "01417267",
      "name_en": "Engineering Mathematics III",
      "name_th": "คณิตศาสตร์วิศวกรรม III",
      "unit_lecture": 3,
      "unit_lab": 0,
      "prerequisite": ["01417168"]
    }
  },
  {
    "model": "students.course",
    "pk": "01420111",
    "fields": {
      "course_id": "01420111",
      "name_en": "General Physics I",
      "name_th": "ฟิสิกส์ทั่วไป I",
      "unit_lecture": 3,
      "unit_lab": 0
    }
  },
  {
    "model": "students.course",
    "pk": "01420112",
    "fields": {
      "course_id": "01420112",
      "name_en": "General Physics II",
      "name_th": "ฟิสิกส์ทั่วไป II",
      "unit_lecture": 3,
      "unit_lab": 0,
      "prerequisite":["01420111"]
    }
  },
  {
    "model": "students.course",
    "pk": "01420113",
    "fields": {
      "course_id": "01420113",
      "name_en": "Laboratory in Physics I",
      "name_th": "ปฏิบัติการฟิสิกส์ I",
      "unit_lecture": 0,
      "unit_lab": 1
    }
  },
  {
    "model": "students.course",
    "pk": "01420114",
    "fields": {
      "course_id": "01420114",
      "name_en": "Laboratory in Physics II",
      "name_th": "ปฏิบัติการฟิสิกส์ II",
      "unit_lecture": 0,
      "unit_lab": 1,
      "prerequisite":["01420113"]
    }
  },
  {
    "model": "students.course",
    "pk": "03601201",
    "fields": {
      "course_id": "03601201",
      "name_en": "Introduction to Electrical Engineering",
      "name_th": "วิศวกรรมไฟฟ้าเบื้องต้น",
      "unit_lecture": 3,
      "unit_lab": 0
    }
  },
  {
    "model": "students.course",
    "pk": "03601202",
    "fields": {
      "course_id": "03601202",
      "name_en": "Electrical Engineering Laboratory I",
      "name_th": "ปฏิบัติการวิศวกรรมไฟฟ้า I",
      "unit_lecture": 0,
      "unit_lab": 1,
      "prerequisite":["03601201"]
    }
  },
  {
    "model": "students.course",
    "pk": "03603111",
    "fields": {
      "course_id": "03603111",
      "name_en": "Programming Fundamentals I",
      "name_th": "หลักการโปรแกรมเบื้องต้น I",
      "unit_lecture": 2,
      "unit_lab": 1
    }
  },
  {
    "model": "students.course",
    "pk": "03604111",
    "fields": {
      "course_id": "03604111",
      "name_en": "Engineering Drawing",
      "name_th": "การเขียนแบบทางวิศวกรรม",
      "unit_lecture": 2,
      "unit_lab": 1
    }
  },
  {
    "model": "students.course",
    "pk": "03604201",
    "fields": {
      "course_id": "03604201",
      "name_en": "Basic Principles in Engineering Mechanics",
      "name_th": "หลักพื้นฐานทางกลศาสตร์วิศวกรรม",
      "unit_lecture": 3,
      "unit_lab": 0
    }
  }
]
